<?xml version="1.0" encoding="utf-8"?>
<!-- Generator: Adobe Illustrator 27.0.0, SVG Export Plug-In . SVG Version: 6.00 Build 0)  -->
<svg version="1.1" xmlns="http://www.w3.org/2000/svg" xmlns:xlink="http://www.w3.org/1999/xlink" x="0px" y="0px"
	 viewBox="0 0 21.01 21.01" style="enable-background:new 0 0 21.01 21.01;" xml:space="preserve">
<style type="text/css">
	.st0{clip-path:url(#SVGID_00000106831458042094172980000013435939624000777373_);}
	.st1{fill:#FFFFFF;}
	.st2{fill:none;stroke:#000000;stroke-miterlimit:10;}
	.st3{fill:#FFFFFF;stroke:#000000;stroke-miterlimit:10;}
	.st4{clip-path:url(#SVGID_00000161594741923284838570000001970379068506820497_);}
	.st5{fill:url(#SVGID_00000177445410326663328120000004447679922573261953_);}
	.st6{clip-path:url(#SVGID_00000108299811681675708440000006065930687773128863_);}
	.st7{clip-path:url(#SVGID_00000007394197691490697320000012799837620291891874_);}
	.st8{clip-path:url(#SVGID_00000018924910201321193610000002652527057837472159_);}
	.st9{clip-path:url(#SVGID_00000038407935820393898570000004365096473323376000_);}
	.st10{clip-path:url(#SVGID_00000142899007309425075400000003061979002305781643_);}
	.st11{clip-path:url(#SVGID_00000007423440572461573900000005109193540489290889_);}
	.st12{clip-path:url(#SVGID_00000000200101696668378000000016584562873781518739_);}
	.st13{clip-path:url(#SVGID_00000114758467981095192140000004097063342782287265_);}
	.st14{clip-path:url(#SVGID_00000117638745346331768200000012935938069628573068_);}
	.st15{clip-path:url(#SVGID_00000141452443925253708010000003874653151701250487_);}
	.st16{clip-path:url(#SVGID_00000110460849424708301330000007796409977461014171_);}
	.st17{clip-path:url(#SVGID_00000086693825212493390440000003877564522863413165_);}
	.st18{clip-path:url(#SVGID_00000026845028906977823910000015858712599234431656_);}
	.st19{clip-path:url(#SVGID_00000016791741073970171160000002458716666856376730_);}
	.st20{clip-path:url(#SVGID_00000108291292428838544000000013991017471611221906_);}
	.st21{clip-path:url(#SVGID_00000016795810563323927280000017493961803136539264_);}
	.st22{clip-path:url(#SVGID_00000004537316581045295520000013009275615130798494_);}
	.st23{clip-path:url(#SVGID_00000057833070961884520480000004539313795912150686_);}
	.st24{clip-path:url(#SVGID_00000030448650790877660160000006996853157887321014_);}
	.st25{clip-path:url(#SVGID_00000031190137803668350060000011116001348960665006_);}
	.st26{clip-path:url(#SVGID_00000165227539608322666060000008427041814833019538_);}
	.st27{clip-path:url(#SVGID_00000087407825869553841660000009818258123651958944_);}
	.st28{clip-path:url(#SVGID_00000078006560498642196290000011276382829316621190_);}
	.st29{clip-path:url(#SVGID_00000066474088618321321620000015489369557704470947_);}
	.st30{clip-path:url(#SVGID_00000117643606346497847020000011672264199518010509_);}
	.st31{clip-path:url(#SVGID_00000067953553915115913640000001614569564792816288_);}
	.st32{clip-path:url(#SVGID_00000129199844421082780320000007174085030134715295_);}
	.st33{clip-path:url(#SVGID_00000112630262189945849230000009288220185581188502_);}
	.st34{clip-path:url(#SVGID_00000160891105370588265780000001559241528685888182_);}
	.st35{clip-path:url(#SVGID_00000104667219877818286600000002153580760205008783_);}
	.st36{clip-path:url(#SVGID_00000085960510036039579880000011071510033286785445_);}
	.st37{clip-path:url(#SVGID_00000183229481203154152680000007159717607871239073_);}
	.st38{clip-path:url(#SVGID_00000028283413874566048850000002684346747804346753_);}
	.st39{clip-path:url(#SVGID_00000160171680149635491220000007278695454692399256_);}
	.st40{clip-path:url(#SVGID_00000124847979039791352260000008277805869036060813_);}
	.st41{clip-path:url(#SVGID_00000160902068873272114160000000336020929551154332_);}
	.st42{clip-path:url(#SVGID_00000092414789426326487080000004551784876719731090_);}
	.st43{clip-path:url(#SVGID_00000106857052807540177090000012591017551681540020_);}
	.st44{clip-path:url(#SVGID_00000076563968588910095510000008997194520764888494_);}
	.st45{clip-path:url(#SVGID_00000088814821073755231120000015548294722550826682_);}
	.st46{clip-path:url(#SVGID_00000055694763565104937810000001308178184206684819_);}
	.st47{clip-path:url(#SVGID_00000154407198241027432440000009789833107934658705_);}
	.st48{clip-path:url(#SVGID_00000117643761112326939560000005128300357937076615_);}
	.st49{clip-path:url(#SVGID_00000022554389215306314170000016962336583907140246_);}
	.st50{clip-path:url(#SVGID_00000088831901853574978200000007617012333644616592_);}
	.st51{clip-path:url(#SVGID_00000016069069661000368560000003389325004923882148_);}
	.st52{clip-path:url(#SVGID_00000072973862978076559590000004331050941130360960_);}
	.st53{clip-path:url(#SVGID_00000012473991479390540910000013701256265005451437_);}
	.st54{clip-path:url(#SVGID_00000132779158947464044380000009543653499597363361_);}
	.st55{clip-path:url(#SVGID_00000029023287183543431340000010003774994413125045_);}
	.st56{clip-path:url(#SVGID_00000057864980866492969750000017968644660106230452_);}
	.st57{clip-path:url(#SVGID_00000156555482245221510880000014212905720919062201_);}
	.st58{clip-path:url(#SVGID_00000136381386703473286460000009823739248449263550_);}
	.st59{clip-path:url(#SVGID_00000116934974138100757000000009848872190335858564_);}
	.st60{clip-path:url(#SVGID_00000065034576841879458200000002584179532369282203_);}
	.st61{clip-path:url(#SVGID_00000095302575916222487440000007050908007549244596_);}
	.st62{clip-path:url(#SVGID_00000178167912951168411580000009212678062081600442_);}
	.st63{clip-path:url(#SVGID_00000070833028578435601530000011968445516250363063_);}
	.st64{clip-path:url(#SVGID_00000020384605514847402600000003458908652912653983_);}
	.st65{fill:url(#SVGID_00000025438742368605018970000014970612666444365718_);}
	.st66{fill:#FF9E18;}
	.st67{fill:#1D262D;}
	.st68{fill:#414A51;}
	.st69{fill:none;stroke:#414A51;stroke-width:0.8692;}
	.st70{fill:#84603C;}
	.st71{fill:#606161;}
</style>
<g id="BACKGROUND">
</g>
<g id="OBJECTS">
</g>
<g id="DESIGNED_BY_FREEPIK">
	<g>
		<g>
			<path class="st66" d="M10.04,15.05v-1.13H9.38C9.56,14.31,9.78,14.7,10.04,15.05z"/>
			<path class="st66" d="M7.86,13.93c0.27,0.36,0.59,0.7,0.97,0.99c-0.18-0.31-0.34-0.65-0.47-0.99H7.86z"/>
			<path class="st66" d="M10.04,7.65V6.09C9.69,6.58,9.41,7.1,9.2,7.65H10.04z"/>
			<path class="st66" d="M8.66,10.06h1.37V8.59H8.9C8.77,9.07,8.69,9.55,8.66,10.06z"/>
			<path class="st66" d="M6.38,13.93c0.31,0.38,0.66,0.7,1.06,0.98c-0.28-0.31-0.51-0.64-0.73-0.98H6.38z"/>
			<path class="st66" d="M6.19,8.59H5.57c-0.18,0.46-0.31,0.95-0.36,1.47h0.67C5.93,9.55,6.03,9.06,6.19,8.59z"/>
			<path class="st66" d="M8.75,6.37C8.33,6.75,7.97,7.18,7.68,7.65h0.5C8.34,7.21,8.53,6.78,8.75,6.37z"/>
			<path class="st66" d="M7.91,8.59H7.19c-0.18,0.47-0.3,0.96-0.35,1.47h0.87C7.73,9.55,7.81,9.07,7.91,8.59z"/>
			<path class="st66" d="M7.3,12.97h0.72c-0.17-0.64-0.29-1.29-0.31-1.96h-0.9C6.85,11.7,7.01,12.37,7.3,12.97z"/>
			<path class="st66" d="M5.21,11.01c0.05,0.69,0.25,1.36,0.55,1.96h0.5c-0.23-0.61-0.37-1.27-0.4-1.96H5.21z"/>
			<path class="st66" d="M7.71,6.06C7.05,6.46,6.5,7.01,6.08,7.65h0.51C6.88,7.08,7.25,6.53,7.71,6.06z"/>
			<path class="st66" d="M12.98,8.59c0.11,0.48,0.18,0.96,0.2,1.47h0.87c-0.06-0.51-0.17-1-0.36-1.47H12.98z"/>
			<path class="st66" d="M9,12.97h1.03v-1.96H8.65C8.69,11.68,8.82,12.33,9,12.97z"/>
			<path class="st66" d="M12.06,14.92c0.37-0.29,0.69-0.63,0.96-0.99h-0.48C12.41,14.27,12.25,14.61,12.06,14.92z"/>
			<path class="st66" d="M13.26,15.12c0.53-0.32,0.99-0.73,1.38-1.19h-0.46C13.92,14.36,13.62,14.75,13.26,15.12z"/>
			<path class="st66" d="M13.59,12.97c0.28-0.6,0.45-1.27,0.48-1.96h-0.88c-0.03,0.67-0.14,1.33-0.31,1.96H13.59z"/>
			<path class="st66" d="M15.01,10.06h0.79c-0.04-0.51-0.17-1.01-0.36-1.47H14.7C14.86,9.06,14.96,9.55,15.01,10.06z"/>
			<path class="st66" d="M13.01,5.89C13.54,6.4,13.97,7,14.3,7.65h0.63C14.45,6.91,13.79,6.32,13.01,5.89z"/>
			<path class="st66" d="M14.62,12.97h0.62c0.31-0.6,0.51-1.27,0.56-1.96h-0.78C15,11.7,14.86,12.36,14.62,12.97z"/>
			<path class="st66" d="M12.71,7.65h0.5c-0.3-0.47-0.65-0.9-1.07-1.28C12.36,6.78,12.55,7.21,12.71,7.65z"/>
			<path class="st66" d="M10.98,11.01v1.96h0.9c0.2-0.64,0.32-1.29,0.35-1.96H10.98z"/>
			<path class="st66" d="M10.98,6.28v1.37h0.72C11.5,7.17,11.26,6.71,10.98,6.28z"/>
			<path class="st66" d="M10.98,14.88c0.2-0.3,0.37-0.63,0.53-0.95h-0.53V14.88z"/>
			<path class="st66" d="M12,8.59h-1.02v1.47h1.25C12.2,9.55,12.12,9.07,12,8.59z"/>
		</g>
		<g>
			<path class="st66" d="M10.51,17.34c-3.77,0-6.84-3.07-6.84-6.84s3.07-6.84,6.84-6.84s6.84,3.07,6.84,6.84
				S14.28,17.34,10.51,17.34z M10.51,4.17c-3.5,0-6.34,2.84-6.34,6.34s2.84,6.34,6.34,6.34s6.34-2.84,6.34-6.34S14,4.17,10.51,4.17z
				"/>
		</g>
	</g>
</g>
</svg>
